Muv log_Mh log_Mh_low log_Mh_up
-21.58049953352352 11.902150604629075 11.7400791322324 12.087917236280651
-21.12889456528851 11.723081242719447 11.568843976895318 11.902563222229666
-20.6772895970535 11.501530068231983 11.365215509766072 11.626934464149874
-20.225684628818488 11.29421517910349 11.184688235143396 11.417905730232501
-19.774079660583478 11.125739112564702 11.026599954696973 11.249357410177698
-19.322474692348468 10.972735581719096 10.889590409416682 11.07180538178566
-18.870869724113458 10.833784037133093 10.74779363692218 10.933811260670236
-18.419264755878448 10.69176676497994 10.619298220644078 10.773865490004155
-17.967659787643438 10.570953276339926 10.503597755005254 10.658747384384776
-17.51605481940843 10.456260088798462 10.383083399614957 10.544284284951416
-17.06444985117342 10.34123264989568 10.269615328853238 10.427962136856136
-16.61284488293841 10.228941111952176 10.15749654985171 10.310746470827391
-16.1612399147034 10.117987998102397 10.043500001314033 10.196994193976394
